{
  "swagger" : "2.0",
  "info" : {
    "version" : "1.0",
    "title" : "Summary about the new REST service.",
    "description" : "Summary about the new REST service."
  },
  "host" : "localhost:8080",
  "basePath" : "/",
  "schemes" : [ "http" ],
  "paths" : {
    "/poststore" : {
      "post" : {
        "summary" : "",
        "description" : "",
        "operationId" : "post-poststore",
        "consumes" : [ "application/json", "application/xml" ],
        "produces" : [ "application/json", "application/xml" ],
        "parameters" : [ {
          "name" : "body",
          "in" : "body",
          "description" : "",
          "schema" : {
            "$ref" : "#/definitions/Store"
          },
          "required" : true
        } ],
        "responses" : {
          "200" : {
            "description" : "a Store to be returned",
            "schema" : {
              "$ref" : "#/definitions/Store"
            }
          }
        }
      }
    }
  },
  "definitions" : {
    "Response" : {
      "type" : "object",
      "properties" : {
        "StoreID" : {
          "type" : "array",
          "items" : {
            "type" : "integer",
            "uniqueItems" : false
          }
        },
        "NameStore" : {
          "type" : "array",
          "items" : {
            "type" : "string",
            "uniqueItems" : false
          }
        },
        "Estatus" : {
          "type" : "array",
          "items" : {
            "type" : "string",
            "uniqueItems" : false
          }
        },
        "Phone" : {
          "type" : "array",
          "items" : {
            "type" : "string",
            "uniqueItems" : false
          }
        },
        "Email" : {
          "type" : "array",
          "items" : {
            "type" : "string",
            "uniqueItems" : false
          }
        },
        "Street" : {
          "type" : "array",
          "items" : {
            "type" : "string",
            "uniqueItems" : false
          }
        },
        "City" : {
          "type" : "array",
          "items" : {
            "type" : "string",
            "uniqueItems" : false
          }
        },
        "State" : {
          "type" : "array",
          "items" : {
            "type" : "string",
            "uniqueItems" : false
          }
        },
        "ZIPCode" : {
          "type" : "array",
          "items" : {
            "type" : "string",
            "uniqueItems" : false
          }
        }
      }
    },
    "Request" : {
      "type" : "object",
      "properties" : {
        "StoreID" : {
          "type" : "array",
          "items" : {
            "type" : "integer",
            "uniqueItems" : false
          }
        },
        "NameStore" : {
          "type" : "array",
          "items" : {
            "type" : "string",
            "uniqueItems" : false
          }
        },
        "Phone" : {
          "type" : "array",
          "items" : {
            "type" : "string",
            "uniqueItems" : false
          }
        },
        "Email" : {
          "type" : "array",
          "items" : {
            "type" : "string",
            "uniqueItems" : false
          }
        },
        "Street" : {
          "type" : "array",
          "items" : {
            "type" : "string",
            "uniqueItems" : false
          }
        },
        "City" : {
          "type" : "array",
          "items" : {
            "type" : "string",
            "uniqueItems" : false
          }
        },
        "State" : {
          "type" : "array",
          "items" : {
            "type" : "string",
            "uniqueItems" : false
          }
        },
        "ZIPCode" : {
          "type" : "array",
          "items" : {
            "type" : "string",
            "uniqueItems" : false
          }
        }
      }
    },
    "Store" : {
      "type" : "object",
      "properties" : {
        "Request" : {
          "type" : "array",
          "items" : {
            "$ref" : "#/definitions/Request",
            "uniqueItems" : false
          }
        },
        "Response" : {
          "type" : "array",
          "items" : {
            "$ref" : "#/definitions/Response",
            "uniqueItems" : false
          }
        }
      }
    }
  }
}